{
  "server": "hub-cloud.browserstack.com",
  "user": "xxx",
  "key": "xxx",
  "capabilities": {
    "browserstack.debug": true
  },
  "environments": {
    "win7_chrome56": {
      "os": "Windows",
      "os_version": "7",
      "browser": "Chrome",
      "browser_version": "56.0"
    },
    "win10_chrome55": {
      "os": "Windows",
      "os_version": "10",
      "browser": "Chrome",
      "browser_version": "55.0"
    },
    "sierra_chrome56": {
      "os": "OS X",
      "os_version": "Sierra",
      "browser": "Chrome",
      "browser_version": "56.0"
    },
    "win7_firefox52": {
      "os": "Windows",
      "os_version": "7",
      "browser": "Firefox",
      "browser_version": "52.0"
    },
    "sierra_firefox52": {
      "os": "OS X",
      "os_version": "Sierra",
      "browser": "Firefox",
      "browser_version": "52.0"
    },
    "elcapitan_safari9.1": {
      "os": "OS X",
      "os_version": "El Capitan",
      "browser": "Safari",
      "browser_version": "9.1"
    },
    "win7_ie11": {
      "os": "Windows",
      "os_version": "7",
      "browser": "IE",
      "browser_version": "11.0"
    },
    "win10_ie11": {
      "os": "Windows",
      "os_version": "10",
      "browser": "IE",
      "browser_version": "11.0"
    },
    "win10_edge": {
      "os": "Windows",
      "os_version": "10",
      "browser": "Edge",
      "browser_version": "14.0"
    }
  }
}